<?xml version="1.0" encoding="UTF-8" standalone="no"?>
<!-- Created with Inkscape (http://www.inkscape.org/) -->

<svg
   width="165.56287mm"
   height="139.80869mm"
   viewBox="0 0 165.56286 139.80869"
   version="1.1"
   id="svg1"
   inkscape:version="1.3.2 (091e20ef0f, 2023-11-25)"
   sodipodi:docname="types-ergots.svg"
   xmlns:inkscape="http://www.inkscape.org/namespaces/inkscape"
   xmlns:sodipodi="http://sodipodi.sourceforge.net/DTD/sodipodi-0.dtd"
   xmlns="http://www.w3.org/2000/svg"
   xmlns:svg="http://www.w3.org/2000/svg">
  <sodipodi:namedview
     id="namedview1"
     pagecolor="#ffffff"
     bordercolor="#999999"
     borderopacity="1"
     inkscape:showpageshadow="2"
     inkscape:pageopacity="0"
     inkscape:pagecheckerboard="0"
     inkscape:deskcolor="#d1d1d1"
     inkscape:document-units="mm"
     showguides="true"
     inkscape:zoom="2.0952862"
     inkscape:cx="126.23574"
     inkscape:cy="223.35851"
     inkscape:window-width="2560"
     inkscape:window-height="1380"
     inkscape:window-x="0"
     inkscape:window-y="0"
     inkscape:window-maximized="1"
     inkscape:current-layer="g3" />
  <defs
     id="defs1">
    <linearGradient
       id="swatch6"
       inkscape:swatch="solid">
      <stop
         style="stop-color:#00ff00;stop-opacity:1;"
         offset="0"
         id="stop6" />
    </linearGradient>
    <rect
       x="171.3213"
       y="387.22095"
       width="106.20708"
       height="53.439697"
       id="rect4" />
    <rect
       x="171.3213"
       y="387.22095"
       width="106.20708"
       height="53.439697"
       id="rect4-8" />
    <rect
       x="171.3213"
       y="387.22095"
       width="164.11981"
       height="31.824959"
       id="rect4-8-2" />
    <rect
       x="171.3213"
       y="387.22095"
       width="164.11981"
       height="31.824959"
       id="rect4-8-2-2" />
  </defs>
  <g
     inkscape:label="Calque 1"
     inkscape:groupmode="layer"
     id="layer1"
     transform="translate(-18.803213,0.31766183)">
    <g
       id="g3"
       transform="translate(24.312764,-35.725943)">
      <path
         id="path3-2"
         style="fill:#000000;stroke:none;stroke-width:0.5;stroke-dasharray:none;stroke-opacity:1"
         d="m 107.0702,98.274446 c -4.67255,0.0076 -9.425956,2.827214 -11.091311,8.435664 -2.755707,9.28042 10.655381,19.76158 1.934766,19.76158 h -8.73822 l -0.07619,33.67543 h 62.858695 l 0.0762,-33.67543 h -8.73875 c -8.72061,0 4.69047,10.48117 1.93477,19.76158 -3.33071,11.2169 -19.013,11.278 -21.6979,0 -2.47267,-10.38646 12.89028,-19.85266 -2.92747,-19.76158 -15.81775,0.0911 -0.45481,-9.37511 -2.92747,-19.76158 -1.34246,-5.639 -5.93455,-8.443302 -10.60711,-8.435664 z"
         sodipodi:nodetypes="ssscccccsssss" />
      <path
         id="path3-2-2"
         style="fill:#ffffff;stroke:#000000;stroke-width:0.5;stroke-dasharray:none;stroke-opacity:1"
         d="m 134.13883,112.87915 c 4.67255,-0.008 9.42596,-2.82722 11.09132,-8.43566 2.7557,-9.280425 -10.65539,-19.761589 -1.93477,-19.761589 h 8.73822 L 151.9579,51.082662 H 89.099244 l 0.07566,33.599239 h 8.73875 c 8.720606,0 -4.69047,-10.481164 -1.93477,-19.761579 3.33071,-11.2169 19.012996,-11.278 21.697896,0 2.47267,10.386464 -12.89028,19.852661 2.92747,19.761579 15.81775,-0.09108 0.45481,9.375115 2.92747,19.761589 1.34246,5.63899 5.93455,8.44329 10.60711,8.43566 z"
         sodipodi:nodetypes="ssscccccsssss" />
    </g>
    <g
       id="g4"
       transform="translate(28.098377,-28.285483)">
      <path
         style="fill:#000000;stroke:none;stroke-width:0.5;stroke-dasharray:none;stroke-opacity:1"
         d="M -1.0007743,119.35292 H 21.252293 c 8.720619,0 -4.690345,-10.48099 -1.934637,-19.761423 3.330717,-11.216905 19.013136,-11.278005 21.698045,0 2.472666,10.386483 -12.889802,19.910923 2.927522,19.761423 l 17.914466,-0.16932 v 33.52306 H -1.0007743 Z"
         id="path3"
         sodipodi:nodetypes="csssscccc" />
      <path
         style="fill:#ffffff;stroke:#000000;stroke-width:0.5;stroke-dasharray:none;stroke-opacity:1"
         d="M -1.0872773,77.486945 H 21.252286 c 8.720623,0 -4.690343,-10.481 -1.934634,-19.761428 3.330717,-11.216896 19.01314,-11.277995 21.698049,0 2.472666,10.386478 -12.8898,19.911352 2.927516,19.761428 L 61.80676,77.317625 V 43.642202 H 27.14808 -1.0872773 Z"
         id="path3-5"
         sodipodi:nodetypes="cssssccccc" />
      <rect
         style="fill:#83e1b1;fill-opacity:1;stroke:none;stroke-width:0.414468;stroke-dasharray:none;stroke-opacity:1"
         id="rect6-6"
         width="15.26811"
         height="7.2813191"
         x="22.794403"
         y="154.20547" />
      <rect
         style="fill:#83e1b1;fill-opacity:1;stroke:none;stroke-width:0.695532;stroke-dasharray:none;stroke-opacity:1"
         id="rect6-6-3"
         width="42.996925"
         height="7.2813191"
         x="95.282623"
         y="154.20547" />
      <rect
         style="fill:#83e1b1;fill-opacity:1;stroke:none;stroke-width:0.695532;stroke-dasharray:none;stroke-opacity:1"
         id="rect6-6-3-7"
         width="42.996925"
         height="7.2813191"
         x="95.574707"
         y="34.862068" />
      <g
         id="text4"
         style="font-size:21.3333px;white-space:pre;stroke-width:1.88976"
         transform="matrix(0.26458333,0,0,0.26458333,-21.146126,52.383388)"
         aria-label="Mâle">
        <path
           style="font-family:'IBM Plex Sans';-inkscape-font-specification:'IBM Plex Sans';letter-spacing:0px"
           d="m 184.91158,394.08736 h -0.10667 l -1.25866,2.496 -3.56266,6.48532 -3.56267,-6.48532 -1.25866,-2.496 h -0.10667 v 12.54398 h -1.74933 V 391.7407 h 2.38933 l 4.26666,8.02132 h 0.10667 l 4.28799,-8.02132 h 2.304 v 14.89064 h -1.74933 z m 13.54665,12.54398 q -0.96,0 -1.38667,-0.512 -0.40533,-0.512 -0.512,-1.27999 h -0.10666 q -0.36267,1.02399 -1.19467,1.53599 -0.83199,0.512 -1.98399,0.512 -1.74933,0 -2.73067,-0.896 -0.95999,-0.89599 -0.95999,-2.43199 0,-1.55733 1.13066,-2.38933 1.152,-0.832 3.56266,-0.832 h 2.176 v -1.088 q 0,-1.17333 -0.64,-1.792 -0.64,-0.61866 -1.96266,-0.61866 -1.00267,0 -1.68533,0.448 -0.66134,0.448 -1.10934,1.19466 l -1.02399,-0.96 q 0.44799,-0.89599 1.42933,-1.51466 0.98133,-0.64 2.47466,-0.64 2.00533,0 3.11466,0.98133 1.10933,0.98133 1.10933,2.73066 v 6.05866 h 1.25867 v 1.49333 z m -4.90666,-1.19466 q 0.64,0 1.17333,-0.14933 0.53333,-0.14934 0.91733,-0.42667 0.384,-0.27733 0.59734,-0.64 0.21333,-0.36267 0.21333,-0.78933 v -1.81333 h -2.26133 q -1.472,0 -2.15466,0.42666 -0.66134,0.42667 -0.66134,1.23734 v 0.44799 q 0,0.81067 0.576,1.25867 0.59733,0.448 1.6,0.448 z m 1.55733,-15.12531 2.368,3.05066 -0.93867,0.66133 -2.49599,-2.49599 -2.496,2.49599 -0.93867,-0.66133 2.368,-3.05066 z m 8.55466,16.31997 q -0.896,0 -1.36533,-0.49066 -0.448,-0.512 -0.448,-1.28 V 390.8447 h 1.70667 v 14.29331 h 1.62133 v 1.49333 z"
           id="path6" />
        <path
           style="font-family:'IBM Plex Sans';-inkscape-font-specification:'IBM Plex Sans';letter-spacing:1.33px"
           d="m 211.79154,406.88734 q -1.13067,0 -2.048,-0.40533 -0.896,-0.40533 -1.55733,-1.152 -0.64,-0.768 -1.00267,-1.81333 -0.34133,-1.06666 -0.34133,-2.38933 0,-1.30133 0.34133,-2.36799 0.36267,-1.06667 1.00267,-1.81333 0.66133,-0.768 1.55733,-1.17334 0.91733,-0.40533 2.048,-0.40533 1.10933,0 1.98399,0.40533 0.87467,0.40534 1.49333,1.13067 0.61867,0.704 0.93867,1.68533 0.34133,0.98133 0.34133,2.15466 v 0.81067 h -7.91465 v 0.512 q 0,0.704 0.21333,1.32266 0.23467,0.59733 0.64,1.04533 0.42667,0.448 1.024,0.704 0.61866,0.256 1.38666,0.256 1.04533,0 1.81333,-0.49066 0.78934,-0.49067 1.216,-1.408 l 1.216,0.87466 q -0.53333,1.13067 -1.664,1.83467 -1.13066,0.68266 -2.68799,0.68266 z m 0,-10.09065 q -0.704,0 -1.28,0.256 -0.576,0.23467 -1.00267,0.68267 -0.40533,0.448 -0.64,1.06666 -0.23466,0.59733 -0.23466,1.32267 v 0.14933 h 6.07999 v -0.23467 q 0,-1.47199 -0.81067,-2.34666 -0.78933,-0.896 -2.11199,-0.896 z"
           id="path7" />
      </g>
      <rect
         style="fill:#83e1b1;fill-opacity:1;stroke:none;stroke-width:0.534258;stroke-dasharray:none;stroke-opacity:1"
         id="rect6"
         width="25.369072"
         height="7.2813191"
         x="17.675205"
         y="34.862068" />
      <path
         d="m 175.31159,406.63134 h -1.91999 v -15.23197 h 8.51198 v 1.68533 h -6.59199 v 5.39732 h 6.18666 v 1.68533 h -6.18666 z m 13.31196,-11.64798 q 1.472,0 2.51733,0.64 1.06667,0.64 1.62133,1.81333 0.576,1.152 0.576,2.70933 v 1.13066 h -7.82932 q 0.0427,1.94134 0.98133,2.96533 0.96,1.00267 2.66666,1.00267 1.088,0 1.92,-0.192 0.85333,-0.21333 1.74933,-0.59733 v 1.64266 q -0.87466,0.384 -1.72799,0.55467 -0.85334,0.192 -2.02667,0.192 -1.62133,0 -2.87999,-0.66134 -1.23734,-0.66133 -1.94133,-1.96266 -0.68267,-1.32266 -0.68267,-3.22133 0,-1.87733 0.61867,-3.22133 0.64,-1.34399 1.77066,-2.06933 1.152,-0.72533 2.66666,-0.72533 z m -0.0213,1.536 q -1.344,0 -2.13333,0.87466 -0.768,0.85334 -0.91733,2.38933 h 5.82399 q -0.0213,-1.45066 -0.68267,-2.34666 -0.66133,-0.91733 -2.09066,-0.91733 z m 20.18128,-1.536 q 1.94133,0 2.90133,1.00267 0.96,0.98133 0.96,3.19999 v 7.44532 h -1.856 v -7.35999 q 0,-2.70932 -2.32533,-2.70932 -1.66399,0 -2.38933,0.95999 -0.70399,0.96 -0.70399,2.79467 v 6.31465 h -1.856 v -7.35999 q 0,-2.70932 -2.34666,-2.70932 -1.728,0 -2.38933,1.06666 -0.66134,1.06667 -0.66134,3.072 v 5.93065 h -1.87733 v -11.43465 h 1.51467 l 0.27733,1.55734 h 0.10667 q 0.53333,-0.896 1.42933,-1.32267 0.91733,-0.448 1.94133,-0.448 2.68799,0 3.49866,1.92 h 0.10667 q 0.576,-0.98133 1.55733,-1.45067 1.00266,-0.46933 2.11199,-0.46933 z m 11.81864,0 q 1.472,0 2.51733,0.64 1.06666,0.64 1.62133,1.81333 0.576,1.152 0.576,2.70933 v 1.13066 h -7.82932 q 0.0427,1.94134 0.98133,2.96533 0.96,1.00267 2.66666,1.00267 1.088,0 1.92,-0.192 0.85333,-0.21333 1.74933,-0.59733 v 1.64266 q -0.87467,0.384 -1.728,0.55467 -0.85333,0.192 -2.02666,0.192 -1.62133,0 -2.88,-0.66134 -1.23733,-0.66133 -1.94133,-1.96266 -0.68266,-1.32266 -0.68266,-3.22133 0,-1.87733 0.61866,-3.22133 0.64,-1.34399 1.77067,-2.06933 1.15199,-0.72533 2.66666,-0.72533 z m -0.0213,1.536 q -1.34399,0 -2.13333,0.87466 -0.76799,0.85334 -0.91733,2.38933 h 5.82399 q -0.0213,-1.45066 -0.68266,-2.34666 -0.66133,-0.91733 -2.09067,-0.91733 z m 9.51464,10.11198 h -1.87733 v -16.2133 h 1.87733 z m 5.50398,0 h -1.87733 v -16.2133 h 1.87733 z m 8.04264,-11.64798 q 1.472,0 2.51733,0.64 1.06666,0.64 1.62133,1.81333 0.576,1.152 0.576,2.70933 v 1.13066 h -7.82932 q 0.0427,1.94134 0.98133,2.96533 0.96,1.00267 2.66666,1.00267 1.088,0 1.92,-0.192 0.85333,-0.21333 1.74933,-0.59733 v 1.64266 q -0.87467,0.384 -1.728,0.55467 -0.85333,0.192 -2.02666,0.192 -1.62133,0 -2.88,-0.66134 -1.23733,-0.66133 -1.94133,-1.96266 -0.68266,-1.32266 -0.68266,-3.22133 0,-1.87733 0.61866,-3.22133 0.64,-1.34399 1.77067,-2.06933 1.15199,-0.72533 2.66666,-0.72533 z m -0.0213,1.536 q -1.344,0 -2.13333,0.87466 -0.768,0.85334 -0.91734,2.38933 h 5.82399 q -0.0213,-1.45066 -0.68266,-2.34666 -0.66133,-0.91733 -2.09066,-0.91733 z"
         id="text4-9"
         style="font-size:21.3333px;white-space:pre;stroke-width:1.88976"
         transform="matrix(0.26458333,0,0,0.26458333,-25.434045,-66.968482)"
         aria-label="Femelle" />
      <path
         d="m 185.03958,406.63134 h -1.92 v -7.10399 h -7.80799 v 7.10399 h -1.91999 v -15.23197 h 1.91999 v 6.44265 h 7.80799 v -6.44265 h 1.92 z m 8.31997,-11.64798 q 1.472,0 2.51733,0.64 1.06666,0.64 1.62133,1.81333 0.576,1.152 0.576,2.70933 v 1.13066 h -7.82932 q 0.0427,1.94134 0.98133,2.96533 0.96,1.00267 2.66666,1.00267 1.088,0 1.92,-0.192 0.85333,-0.21333 1.74933,-0.59733 v 1.64266 q -0.87467,0.384 -1.728,0.55467 -0.85333,0.192 -2.02666,0.192 -1.62133,0 -2.88,-0.66134 -1.23733,-0.66133 -1.94133,-1.96266 -0.68266,-1.32266 -0.68266,-3.22133 0,-1.87733 0.61866,-3.22133 0.64,-1.34399 1.77067,-2.06933 1.15199,-0.72533 2.66666,-0.72533 z m -0.0213,1.536 q -1.34399,0 -2.13333,0.87466 -0.76799,0.85334 -0.91733,2.38933 h 5.82399 q -0.0213,-1.45066 -0.68266,-2.34666 -0.66133,-0.91733 -2.09067,-0.91733 z m 12.97063,-1.536 q 0.32,0 0.68267,0.0427 0.384,0.0213 0.66133,0.0853 l -0.23467,1.728 q -0.27733,-0.064 -0.61866,-0.10667 -0.32,-0.0427 -0.61867,-0.0427 -0.87466,0 -1.64266,0.49066 -0.768,0.46933 -1.23733,1.344 -0.448,0.85333 -0.448,2.00533 v 6.10132 h -1.87733 v -11.43465 h 1.536 l 0.21333,2.09067 h 0.0853 q 0.55467,-0.93867 1.42933,-1.62133 0.87467,-0.68267 2.06933,-0.68267 z m 16.02131,0 q 1.94133,0 2.90133,1.00267 0.96,0.98133 0.96,3.19999 v 7.44532 h -1.856 v -7.35999 q 0,-2.70932 -2.32533,-2.70932 -1.66399,0 -2.38933,0.95999 -0.70399,0.96 -0.70399,2.79467 v 6.31465 h -1.856 v -7.35999 q 0,-2.70932 -2.34666,-2.70932 -1.728,0 -2.38933,1.06666 -0.66134,1.06667 -0.66134,3.072 v 5.93065 h -1.87733 v -11.43465 h 1.51467 l 0.27733,1.55734 h 0.10667 q 0.53333,-0.896 1.42933,-1.32267 0.91733,-0.448 1.94133,-0.448 2.68799,0 3.49866,1.92 h 0.10667 q 0.576,-0.98133 1.55733,-1.45067 1.00266,-0.46933 2.11199,-0.46933 z m 11.7333,0.0213 q 2.09067,0 3.09333,0.91734 1.00267,0.91733 1.00267,2.92266 v 7.78665 h -1.36533 l -0.36267,-1.62133 h -0.0853 q -0.74667,0.93867 -1.57867,1.38667 -0.81066,0.448 -2.26133,0.448 -1.55733,0 -2.58133,-0.81067 -1.02399,-0.832 -1.02399,-2.58133 0,-1.70666 1.34399,-2.62399 1.344,-0.93867 4.13866,-1.024 l 1.94133,-0.064 v -0.68267 q 0,-1.42933 -0.61866,-1.984 -0.61867,-0.55466 -1.74933,-0.55466 -0.896,0 -1.70667,0.27733 -0.81066,0.256 -1.51466,0.59733 l -0.576,-1.40799 q 0.74667,-0.40534 1.77066,-0.68267 1.024,-0.29867 2.13333,-0.29867 z m 0.55467,6.10133 q -2.13333,0.0853 -2.96533,0.68266 -0.81066,0.59734 -0.81066,1.68533 0,0.96 0.576,1.408 0.59733,0.448 1.51466,0.448 1.45066,0 2.41066,-0.78933 0.96,-0.81067 0.96,-2.47466 v -1.024 z m 12.52267,-6.12266 q 2.11199,0 3.39199,1.472 1.30133,1.472 1.30133,4.43733 0,2.92266 -1.30133,4.43732 -1.28,1.51467 -3.41332,1.51467 -1.32267,0 -2.19733,-0.49067 -0.85334,-0.512 -1.344,-1.17333 h -0.128 q 0.0427,0.36266 0.0853,0.91733 0.0427,0.55467 0.0427,0.96 v 4.69332 h -1.87733 v -16.55464 h 1.53599 l 0.256,1.55734 h 0.0853 q 0.512,-0.74667 1.344,-1.25867 0.83199,-0.512 2.21866,-0.512 z m -0.34133,1.57867 q -1.74934,0 -2.47467,0.98133 -0.704,0.98133 -0.74666,2.98666 v 0.36267 q 0,2.11199 0.68266,3.26399 0.704,1.13067 2.58133,1.13067 1.04533,0 1.70667,-0.576 0.68266,-0.576 1.00266,-1.55733 0.34133,-1.00267 0.34133,-2.28267 0,-1.96266 -0.76799,-3.13599 -0.74667,-1.17333 -2.32533,-1.17333 z m 9.89864,-1.38667 q 0,0.85333 -0.10667,1.6 h 0.128 q 0.55467,-0.87467 1.49333,-1.32267 0.96,-0.448 2.06933,-0.448 2.09067,0 3.136,1.00267 1.04533,0.98133 1.04533,3.17866 v 7.44532 h -1.856 v -7.31732 q 0,-2.75199 -2.55999,-2.75199 -1.92,0 -2.64533,1.08799 -0.704,1.06667 -0.704,3.072 v 5.90932 h -1.87733 v -16.2133 h 1.87733 z m 16.63998,-0.192 q 0.32,0 0.68266,0.0427 0.384,0.0213 0.66133,0.0853 l -0.23466,1.728 q -0.27733,-0.064 -0.61867,-0.10667 -0.32,-0.0427 -0.61866,-0.0427 -0.87467,0 -1.64267,0.49066 -0.768,0.46933 -1.23733,1.344 -0.448,0.85333 -0.448,2.00533 v 6.10132 h -1.87733 v -11.43465 h 1.536 l 0.21333,2.09067 h 0.0853 q 0.55466,-0.93867 1.42933,-1.62133 0.87466,-0.68267 2.06933,-0.68267 z m 12.99196,5.90933 q 0,2.83732 -1.45066,4.39466 -1.42933,1.55733 -3.88266,1.55733 -1.51467,0 -2.70933,-0.68267 -1.17333,-0.704 -1.856,-2.02666 -0.68266,-1.344 -0.68266,-3.24266 0,-2.83733 1.42933,-4.37333 1.42933,-1.536 3.88266,-1.536 1.55733,0 2.73066,0.704 1.19466,0.68267 1.856,2.00533 0.68266,1.30133 0.68266,3.2 z m -8.63998,0 q 0,2.02666 0.78933,3.22132 0.81066,1.17334 2.55999,1.17334 1.728,0 2.53867,-1.17334 0.81066,-1.19466 0.81066,-3.22132 0,-2.02667 -0.81066,-3.17867 -0.81067,-1.15199 -2.56,-1.15199 -1.74933,0 -2.53866,1.15199 -0.78933,1.152 -0.78933,3.17867 z m 15.65863,5.95199 q -2.13333,0 -3.41333,-1.472 -1.28,-1.49333 -1.28,-4.43733 0,-2.94399 1.28,-4.43732 1.30133,-1.51467 3.43466,-1.51467 1.32267,0 2.15467,0.49067 0.85333,0.49066 1.38666,1.19466 h 0.128 q -0.0213,-0.27733 -0.0853,-0.81066 -0.0427,-0.55467 -0.0427,-0.87467 v -4.56532 h 1.87733 v 16.2133 h -1.51466 l -0.27734,-1.53599 h -0.0853 q -0.512,0.72533 -1.36533,1.23733 -0.85333,0.512 -2.19733,0.512 z m 0.29867,-1.55733 q 1.81333,0 2.53866,-0.98134 0.74666,-1.00266 0.74666,-3.00799 v -0.34133 q 0,-2.13333 -0.70399,-3.264 -0.704,-1.152 -2.60267,-1.152 -1.51466,0 -2.28266,1.216 -0.74667,1.19467 -0.74667,3.22133 0,2.048 0.74667,3.17866 0.768,1.13067 2.304,1.13067 z m 9.72797,-14.37865 q 0.42667,0 0.74667,0.29867 0.34133,0.27733 0.34133,0.896 0,0.59733 -0.34133,0.89599 -0.32,0.29867 -0.74667,0.29867 -0.46933,0 -0.78933,-0.29867 -0.32,-0.29866 -0.32,-0.89599 0,-0.61867 0.32,-0.896 0.32,-0.29867 0.78933,-0.29867 z m 0.91734,4.28799 v 11.43465 h -1.87733 v -11.43465 z m 7.44531,10.11199 q 0.42666,0 0.87466,-0.064 0.448,-0.0853 0.72534,-0.17067 v 1.42933 q -0.29867,0.14934 -0.85334,0.23467 -0.55466,0.10667 -1.06666,0.10667 -0.896,0 -1.664,-0.29867 -0.74666,-0.32 -1.216,-1.088 -0.46933,-0.768 -0.46933,-2.15466 v -6.65599 h -1.62133 v -0.896 l 1.64266,-0.74667 0.74667,-2.43199 h 1.10933 v 2.62399 h 3.30666 v 1.45067 h -3.30666 v 6.61332 q 0,1.04533 0.49067,1.55733 0.512,0.49067 1.30133,0.49067 z m 8.29866,-10.32532 q 1.47199,0 2.51732,0.64 1.06667,0.64 1.62134,1.81333 0.57599,1.152 0.57599,2.70933 v 1.13066 h -7.82932 q 0.0427,1.94134 0.98134,2.96533 0.95999,1.00267 2.66666,1.00267 1.088,0 1.91999,-0.192 0.85334,-0.21333 1.74934,-0.59733 v 1.64266 q -0.87467,0.384 -1.728,0.55467 -0.85333,0.192 -2.02667,0.192 -1.62133,0 -2.87999,-0.66134 -1.23733,-0.66133 -1.94133,-1.96266 -0.68267,-1.32266 -0.68267,-3.22133 0,-1.87733 0.61867,-3.22133 0.64,-1.34399 1.77066,-2.06933 1.152,-0.72533 2.66667,-0.72533 z m -0.0213,1.536 q -1.344,0 -2.13333,0.87466 -0.768,0.85334 -0.91733,2.38933 h 5.82399 q -0.0213,-1.45066 -0.68266,-2.34666 -0.66134,-0.91733 -2.09067,-0.91733 z"
         id="text4-9-7"
         style="font-size:21.3333px;white-space:pre;stroke-width:1.88976"
         transform="matrix(0.26458333,0,0,0.26458333,50.880927,51.725811)"
         aria-label="Hermaphrodite" />
      <path
         d="m 185.03958,406.63134 h -1.92 v -7.10399 h -7.80799 v 7.10399 h -1.91999 v -15.23197 h 1.91999 v 6.44265 h 7.80799 v -6.44265 h 1.92 z m 8.31997,-11.64798 q 1.472,0 2.51733,0.64 1.06666,0.64 1.62133,1.81333 0.576,1.152 0.576,2.70933 v 1.13066 h -7.82932 q 0.0427,1.94134 0.98133,2.96533 0.96,1.00267 2.66666,1.00267 1.088,0 1.92,-0.192 0.85333,-0.21333 1.74933,-0.59733 v 1.64266 q -0.87467,0.384 -1.728,0.55467 -0.85333,0.192 -2.02666,0.192 -1.62133,0 -2.88,-0.66134 -1.23733,-0.66133 -1.94133,-1.96266 -0.68266,-1.32266 -0.68266,-3.22133 0,-1.87733 0.61866,-3.22133 0.64,-1.34399 1.77067,-2.06933 1.15199,-0.72533 2.66666,-0.72533 z m -0.0213,1.536 q -1.34399,0 -2.13333,0.87466 -0.76799,0.85334 -0.91733,2.38933 h 5.82399 q -0.0213,-1.45066 -0.68266,-2.34666 -0.66133,-0.91733 -2.09067,-0.91733 z m 12.97063,-1.536 q 0.32,0 0.68267,0.0427 0.384,0.0213 0.66133,0.0853 l -0.23467,1.728 q -0.27733,-0.064 -0.61866,-0.10667 -0.32,-0.0427 -0.61867,-0.0427 -0.87466,0 -1.64266,0.49066 -0.768,0.46933 -1.23733,1.344 -0.448,0.85333 -0.448,2.00533 v 6.10132 h -1.87733 v -11.43465 h 1.536 l 0.21333,2.09067 h 0.0853 q 0.55467,-0.93867 1.42933,-1.62133 0.87467,-0.68267 2.06933,-0.68267 z m 16.02131,0 q 1.94133,0 2.90133,1.00267 0.96,0.98133 0.96,3.19999 v 7.44532 h -1.856 v -7.35999 q 0,-2.70932 -2.32533,-2.70932 -1.66399,0 -2.38933,0.95999 -0.70399,0.96 -0.70399,2.79467 v 6.31465 h -1.856 v -7.35999 q 0,-2.70932 -2.34666,-2.70932 -1.728,0 -2.38933,1.06666 -0.66134,1.06667 -0.66134,3.072 v 5.93065 h -1.87733 v -11.43465 h 1.51467 l 0.27733,1.55734 h 0.10667 q 0.53333,-0.896 1.42933,-1.32267 0.91733,-0.448 1.94133,-0.448 2.68799,0 3.49866,1.92 h 0.10667 q 0.576,-0.98133 1.55733,-1.45067 1.00266,-0.46933 2.11199,-0.46933 z m 11.7333,0.0213 q 2.09067,0 3.09333,0.91734 1.00267,0.91733 1.00267,2.92266 v 7.78665 h -1.36533 l -0.36267,-1.62133 h -0.0853 q -0.74667,0.93867 -1.57867,1.38667 -0.81066,0.448 -2.26133,0.448 -1.55733,0 -2.58133,-0.81067 -1.02399,-0.832 -1.02399,-2.58133 0,-1.70666 1.34399,-2.62399 1.344,-0.93867 4.13866,-1.024 l 1.94133,-0.064 v -0.68267 q 0,-1.42933 -0.61866,-1.984 -0.61867,-0.55466 -1.74933,-0.55466 -0.896,0 -1.70667,0.27733 -0.81066,0.256 -1.51466,0.59733 l -0.576,-1.40799 q 0.74667,-0.40534 1.77066,-0.68267 1.024,-0.29867 2.13333,-0.29867 z m 0.55467,6.10133 q -2.13333,0.0853 -2.96533,0.68266 -0.81066,0.59734 -0.81066,1.68533 0,0.96 0.576,1.408 0.59733,0.448 1.51466,0.448 1.45066,0 2.41066,-0.78933 0.96,-0.81067 0.96,-2.47466 v -1.024 z m 12.52267,-6.12266 q 2.11199,0 3.39199,1.472 1.30133,1.472 1.30133,4.43733 0,2.92266 -1.30133,4.43732 -1.28,1.51467 -3.41332,1.51467 -1.32267,0 -2.19733,-0.49067 -0.85334,-0.512 -1.344,-1.17333 h -0.128 q 0.0427,0.36266 0.0853,0.91733 0.0427,0.55467 0.0427,0.96 v 4.69332 h -1.87733 v -16.55464 h 1.53599 l 0.256,1.55734 h 0.0853 q 0.512,-0.74667 1.344,-1.25867 0.83199,-0.512 2.21866,-0.512 z m -0.34133,1.57867 q -1.74934,0 -2.47467,0.98133 -0.704,0.98133 -0.74666,2.98666 v 0.36267 q 0,2.11199 0.68266,3.26399 0.704,1.13067 2.58133,1.13067 1.04533,0 1.70667,-0.576 0.68266,-0.576 1.00266,-1.55733 0.34133,-1.00267 0.34133,-2.28267 0,-1.96266 -0.76799,-3.13599 -0.74667,-1.17333 -2.32533,-1.17333 z m 9.89864,-1.38667 q 0,0.85333 -0.10667,1.6 h 0.128 q 0.55467,-0.87467 1.49333,-1.32267 0.96,-0.448 2.06933,-0.448 2.09067,0 3.136,1.00267 1.04533,0.98133 1.04533,3.17866 v 7.44532 h -1.856 v -7.31732 q 0,-2.75199 -2.55999,-2.75199 -1.92,0 -2.64533,1.08799 -0.704,1.06667 -0.704,3.072 v 5.90932 h -1.87733 v -16.2133 h 1.87733 z m 16.63998,-0.192 q 0.32,0 0.68266,0.0427 0.384,0.0213 0.66133,0.0853 l -0.23466,1.728 q -0.27733,-0.064 -0.61867,-0.10667 -0.32,-0.0427 -0.61866,-0.0427 -0.87467,0 -1.64267,0.49066 -0.768,0.46933 -1.23733,1.344 -0.448,0.85333 -0.448,2.00533 v 6.10132 h -1.87733 v -11.43465 h 1.536 l 0.21333,2.09067 h 0.0853 q 0.55466,-0.93867 1.42933,-1.62133 0.87466,-0.68267 2.06933,-0.68267 z m 12.99196,5.90933 q 0,2.83732 -1.45066,4.39466 -1.42933,1.55733 -3.88266,1.55733 -1.51467,0 -2.70933,-0.68267 -1.17333,-0.704 -1.856,-2.02666 -0.68266,-1.344 -0.68266,-3.24266 0,-2.83733 1.42933,-4.37333 1.42933,-1.536 3.88266,-1.536 1.55733,0 2.73066,0.704 1.19466,0.68267 1.856,2.00533 0.68266,1.30133 0.68266,3.2 z m -8.63998,0 q 0,2.02666 0.78933,3.22132 0.81066,1.17334 2.55999,1.17334 1.728,0 2.53867,-1.17334 0.81066,-1.19466 0.81066,-3.22132 0,-2.02667 -0.81066,-3.17867 -0.81067,-1.15199 -2.56,-1.15199 -1.74933,0 -2.53866,1.15199 -0.78933,1.152 -0.78933,3.17867 z m 15.65863,5.95199 q -2.13333,0 -3.41333,-1.472 -1.28,-1.49333 -1.28,-4.43733 0,-2.94399 1.28,-4.43732 1.30133,-1.51467 3.43466,-1.51467 1.32267,0 2.15467,0.49067 0.85333,0.49066 1.38666,1.19466 h 0.128 q -0.0213,-0.27733 -0.0853,-0.81066 -0.0427,-0.55467 -0.0427,-0.87467 v -4.56532 h 1.87733 v 16.2133 h -1.51466 l -0.27734,-1.53599 h -0.0853 q -0.512,0.72533 -1.36533,1.23733 -0.85333,0.512 -2.19733,0.512 z m 0.29867,-1.55733 q 1.81333,0 2.53866,-0.98134 0.74666,-1.00266 0.74666,-3.00799 v -0.34133 q 0,-2.13333 -0.70399,-3.264 -0.704,-1.152 -2.60267,-1.152 -1.51466,0 -2.28266,1.216 -0.74667,1.19467 -0.74667,3.22133 0,2.048 0.74667,3.17866 0.768,1.13067 2.304,1.13067 z m 9.72797,-14.37865 q 0.42667,0 0.74667,0.29867 0.34133,0.27733 0.34133,0.896 0,0.59733 -0.34133,0.89599 -0.32,0.29867 -0.74667,0.29867 -0.46933,0 -0.78933,-0.29867 -0.32,-0.29866 -0.32,-0.89599 0,-0.61867 0.32,-0.896 0.32,-0.29867 0.78933,-0.29867 z m 0.91734,4.28799 v 11.43465 h -1.87733 v -11.43465 z m 7.44531,10.11199 q 0.42666,0 0.87466,-0.064 0.448,-0.0853 0.72534,-0.17067 v 1.42933 q -0.29867,0.14934 -0.85334,0.23467 -0.55466,0.10667 -1.06666,0.10667 -0.896,0 -1.664,-0.29867 -0.74666,-0.32 -1.216,-1.088 -0.46933,-0.768 -0.46933,-2.15466 v -6.65599 h -1.62133 v -0.896 l 1.64266,-0.74667 0.74667,-2.43199 h 1.10933 v 2.62399 h 3.30666 v 1.45067 h -3.30666 v 6.61332 q 0,1.04533 0.49067,1.55733 0.512,0.49067 1.30133,0.49067 z m 8.29866,-10.32532 q 1.47199,0 2.51732,0.64 1.06667,0.64 1.62134,1.81333 0.57599,1.152 0.57599,2.70933 v 1.13066 h -7.82932 q 0.0427,1.94134 0.98134,2.96533 0.95999,1.00267 2.66666,1.00267 1.088,0 1.91999,-0.192 0.85334,-0.21333 1.74934,-0.59733 v 1.64266 q -0.87467,0.384 -1.728,0.55467 -0.85333,0.192 -2.02667,0.192 -1.62133,0 -2.87999,-0.66134 -1.23733,-0.66133 -1.94133,-1.96266 -0.68267,-1.32266 -0.68267,-3.22133 0,-1.87733 0.61867,-3.22133 0.64,-1.34399 1.77066,-2.06933 1.152,-0.72533 2.66667,-0.72533 z m -0.0213,1.536 q -1.344,0 -2.13333,0.87466 -0.768,0.85334 -0.91733,2.38933 h 5.82399 q -0.0213,-1.45066 -0.68266,-2.34666 -0.66134,-0.91733 -2.09067,-0.91733 z"
         id="text4-9-7-8"
         style="font-size:21.3333px;white-space:pre;stroke-width:1.88976"
         transform="matrix(0.26458333,0,0,0.26458333,51.173014,-67.617592)"
         aria-label="Hermaphrodite" />
    </g>
  </g>
</svg>
