<?xml version="1.0" encoding="UTF-8" standalone="no"?>
<!-- Created with Inkscape (http://www.inkscape.org/) -->

<svg
   width="30.517712mm"
   height="26.472284mm"
   viewBox="0 0 30.517711 26.472285"
   version="1.1"
   id="svg1"
   xml:space="preserve"
   xmlns="http://www.w3.org/2000/svg"
   xmlns:svg="http://www.w3.org/2000/svg"><defs
     id="defs1" /><g
     id="layer5"
     transform="translate(-86.779052,-229.11361)"><g
       id="g17-8"
       transform="matrix(0.64445351,0,0,0.64445351,40.39988,50.4174)"><path
         style="display:inline;fill:#ffffff;fill-opacity:1;stroke:none;stroke-width:0.5;stroke-linecap:round;stroke-linejoin:round;stroke-miterlimit:1.6;stroke-dasharray:none;stroke-dashoffset:41.5;stroke-opacity:1"
         id="path103"
         d="m 53.280069,310.22337 -23.427206,0 -11.713602,-20.28856 11.713604,-20.28855 23.427206,0 11.713602,20.28856 z"
         transform="translate(54.077402,7.8870733)" /><path
         style="display:inline;fill:none;stroke:#000000;stroke-width:20;stroke-linecap:butt;stroke-linejoin:round;stroke-miterlimit:1.6;stroke-dasharray:none;stroke-dashoffset:41.5;stroke-opacity:1"
         d="m 95.643867,277.53332 v 40.57711"
         id="path16-3" /><path
         style="display:inline;fill:none;stroke:#ffffff;stroke-width:0.5;stroke-linecap:butt;stroke-linejoin:round;stroke-miterlimit:1.6;stroke-dasharray:none;stroke-dashoffset:0;stroke-opacity:1"
         d="m 95.643867,277.53332 v 40.57711"
         id="path16-5-14" /><path
         style="display:inline;fill:#ffe44a;fill-opacity:1;stroke:#ffe44a;stroke-width:0.5;stroke-linecap:butt;stroke-linejoin:round;stroke-miterlimit:1.6;stroke-dasharray:4, 4;stroke-dashoffset:0;stroke-opacity:1"
         d="m 104.8647,277.53332 v 40.57711"
         id="path16-5-1-9" /><path
         style="display:inline;fill:none;stroke:#ffe44a;stroke-width:0.5;stroke-linecap:butt;stroke-linejoin:round;stroke-miterlimit:1.6;stroke-dasharray:4, 4;stroke-dashoffset:0;stroke-opacity:1"
         d="m 86.423034,277.53332 v 40.57711"
         id="path16-5-1-2-2" /><path
         style="display:inline;fill:none;stroke:#000000;stroke-width:0.5;stroke-linecap:round;stroke-linejoin:round;stroke-miterlimit:1.6;stroke-dasharray:none;stroke-dashoffset:41.5;stroke-opacity:1"
         id="path15-4"
         d="m 53.280069,310.22337 -23.427206,0 -11.713602,-20.28856 11.713604,-20.28855 23.427206,0 11.713602,20.28856 z"
         transform="translate(54.077402,7.8870733)" /></g></g></svg>
