<?xml version="1.0" encoding="UTF-8" standalone="no"?>
<!-- Created with Inkscape (http://www.inkscape.org/) -->

<svg
   width="362.69354mm"
   height="94.069092mm"
   viewBox="0 0 362.69354 94.069093"
   version="1.1"
   id="svg361"
   inkscape:version="1.4 (e7c3feb100, 2024-10-09)"
   sodipodi:docname="flocons.svg"
   xmlns:inkscape="http://www.inkscape.org/namespaces/inkscape"
   xmlns:sodipodi="http://sodipodi.sourceforge.net/DTD/sodipodi-0.dtd"
   xmlns="http://www.w3.org/2000/svg"
   xmlns:svg="http://www.w3.org/2000/svg"
   xmlns:rdf="http://www.w3.org/1999/02/22-rdf-syntax-ns#"
   xmlns:cc="http://creativecommons.org/ns#"
   xmlns:dc="http://purl.org/dc/elements/1.1/">
  <sodipodi:namedview
     id="namedview363"
     pagecolor="#ffffff"
     bordercolor="#eeeeee"
     borderopacity="1"
     inkscape:showpageshadow="0"
     inkscape:pageopacity="0"
     inkscape:pagecheckerboard="0"
     inkscape:deskcolor="#505050"
     inkscape:document-units="mm"
     showgrid="false"
     showguides="true"
     inkscape:zoom="1"
     inkscape:cx="769"
     inkscape:cy="401.5"
     inkscape:window-width="2560"
     inkscape:window-height="1382"
     inkscape:window-x="0"
     inkscape:window-y="0"
     inkscape:window-maximized="1"
     inkscape:current-layer="layer1">
    <inkscape:page
       x="0"
       y="0"
       width="362.69354"
       height="94.069099"
       id="page1"
       margin="0"
       bleed="0" />
  </sodipodi:namedview>
  <defs
     id="defs358">
    <inkscape:path-effect
       effect="offset"
       id="path-effect3603"
       is_visible="true"
       lpeversion="1.2"
       linejoin_type="miter"
       unit="mm"
       offset="0.5"
       miter_limit="4"
       attempt_force_join="false"
       update_on_knot_move="true" />
    <inkscape:path-effect
       effect="copy_rotate"
       starting_point="36.180006,119.47"
       origin="27.37,119.47"
       id="path-effect3291"
       is_visible="true"
       lpeversion="1.2"
       lpesatellites=""
       method="normal"
       num_copies="4"
       starting_angle="0"
       rotation_angle="90"
       gap="-0.01"
       copies_to_360="true"
       mirror_copies="false"
       split_items="false"
       link_styles="false" />
    <inkscape:path-effect
       effect="mirror_symmetry"
       start_point="27.374711,98.940702"
       end_point="27.374711,119.46553"
       center_point="27.374711,109.20312"
       id="path-effect3289"
       is_visible="true"
       lpeversion="1.2"
       lpesatellites=""
       mode="free"
       discard_orig_path="false"
       fuse_paths="false"
       oposite_fuse="true"
       split_items="false"
       split_open="false"
       link_styles="false" />
    <inkscape:path-effect
       effect="copy_rotate"
       starting_point="163.2622,70.01"
       origin="153.38,70.01"
       id="path-effect2441"
       is_visible="true"
       lpeversion="1.2"
       lpesatellites=""
       method="normal"
       num_copies="14"
       starting_angle="0"
       rotation_angle="25.714286"
       gap="0"
       copies_to_360="true"
       mirror_copies="true"
       split_items="false"
       link_styles="false" />
    <inkscape:path-effect
       effect="offset"
       id="path-effect2408"
       is_visible="true"
       lpeversion="1.2"
       linejoin_type="miter"
       unit="mm"
       offset="0.8"
       miter_limit="4"
       attempt_force_join="false"
       update_on_knot_move="true" />
    <inkscape:path-effect
       effect="copy_rotate"
       starting_point="180.10924,104.78"
       origin="161.7,104.78"
       id="path-effect1470"
       is_visible="true"
       lpeversion="1.2"
       lpesatellites=""
       method="normal"
       num_copies="6"
       starting_angle="0"
       rotation_angle="60"
       gap="-0.01"
       copies_to_360="true"
       mirror_copies="false"
       split_items="false"
       link_styles="false" />
    <inkscape:path-effect
       effect="mirror_symmetry"
       start_point="161.69923,50.132253"
       end_point="161.69923,94.026447"
       center_point="161.69923,72.07935"
       id="path-effect1466"
       is_visible="true"
       lpeversion="1.2"
       lpesatellites=""
       mode="free"
       discard_orig_path="false"
       fuse_paths="true"
       oposite_fuse="false"
       split_items="false"
       split_open="false"
       link_styles="false" />
    <inkscape:path-effect
       effect="offset"
       id="path-effect1049"
       is_visible="true"
       lpeversion="1.2"
       linejoin_type="miter"
       unit="mm"
       offset="0.9"
       miter_limit="4"
       attempt_force_join="false"
       update_on_knot_move="true" />
  </defs>
  <g
     inkscape:groupmode="layer"
     id="layer1"
     inkscape:label="Fond"
     transform="translate(-9.5250007)">
    <rect
       style="display:inline;fill:#ffffff;fill-opacity:1;stroke:none;stroke-width:0.425852;stroke-miterlimit:1.6;stroke-dasharray:none;stroke-opacity:1"
       id="rect2"
       width="362.69354"
       height="94.069099"
       x="9.5250006"
       y="0" />
  </g>
  <g
     inkscape:groupmode="layer"
     id="layer3"
     inkscape:label="Flocon 2"
     style="display:inline"
     transform="translate(-14.816667,-2.1166668)">
    <path
       id="path2410"
       style="fill:none;stroke:#000000;stroke-width:0.529167;stroke-linejoin:round;stroke-miterlimit:10;stroke-dasharray:none;stroke-opacity:1"
       d="M 289.98415,8.8775203 V 21.580804 l -7.90684,-6.90122 -3.20938,3.66881 11.11622,9.70129 v 5.77767 l -8.04779,4.6487 -5.0038,-2.88952 -2.84343,-14.47873 -4.78286,0.946 2.02346,10.29762 -11.00102,-6.35097 -1.22113,2.11564 -1.22248,2.11563 11.00101,6.35232 -9.93032,3.39775 1.57352,4.61346 13.961,-4.77745 5.00242,2.88951 v 9.29197 l -5.00242,2.88953 -13.96237,-4.77611 -1.5708,4.61347 9.92897,3.39775 -11.00102,6.35097 1.22249,2.11699 1.22113,2.11698 11.00237,-6.35233 -2.02347,10.29761 4.78152,0.94602 2.84343,-14.47738 5.0038,-2.88952 8.04916,4.64735 v 5.77767 l -11.11621,9.70128 3.20936,3.66882 7.90685,-6.90122 v 12.70328 h 2.44361 2.44363 v -12.70328 l 7.90686,6.90122 3.20936,-3.66882 -11.11622,-9.70128 v -5.77767 l 8.04781,-4.64736 5.00378,2.88953 2.84344,14.47738 4.78152,-0.94602 -2.02346,-10.29761 11.00236,6.35232 1.22113,-2.11697 1.22248,-2.11699 -11.00102,-6.35097 9.92898,-3.39775 -1.5708,-4.61347 -13.96237,4.77611 -5.00242,-2.88953 v -9.29197 l 5.00242,-2.88951 13.96237,4.77609 1.5708,-4.61346 -9.93034,-3.39775 11.00238,-6.35096 -1.22248,-2.11699 -1.22113,-2.11563 -11.00236,6.35096 2.02346,-10.29626 -4.78152,-0.946 -2.84344,14.47738 -5.00378,2.88951 -8.04917,-4.64734 v -5.77767 l 11.11623,-9.70129 -3.20937,-3.66881 -7.90686,6.90122 V 8.8775203 h -2.44361 z m 2.44363,29.1729637 8.05731,4.65141 v 9.30282 l -8.05596,4.65277 -8.05728,-4.65277 v -9.30146 z"
       inkscape:label="x"
       sodipodi:nodetypes="cccccccccccccccccccccccccccccccccccccccccccccccccccccccccccccccccccccccccccccccccccccc" />
    <path
       id="path2410-5"
       style="fill:none;stroke:#000000;stroke-width:0.529167;stroke-linejoin:round;stroke-miterlimit:10;stroke-dasharray:none;stroke-opacity:1"
       d="m 248.14247,55.282462 -5.6137,-3.27774 v -9.30147 l 5.61233,-3.34881 v -5.52709 l -8.04779,4.6487 -5.0038,-2.88951 -2.84343,-14.47874 -4.78286,0.94601 2.02346,10.29761 -11.00102,-6.35096 -1.22113,2.11563 -1.22249,2.11563 11.00102,6.35233 -9.93033,3.39774 1.57351,4.61347 13.96101,-4.77746 5.00242,2.88951 v 9.29199 l -5.00242,2.88952 -13.96236,-4.77611 -1.5708,4.61347 9.92897,3.39775 -11.00102,6.35097 1.22249,2.11699 1.22113,2.11697 11.00237,-6.35232 -2.02348,10.29761 4.78153,0.94601 2.84343,-14.47738 5.0038,-2.88952 8.04916,4.64736 z m 0,11.37584 -11.11621,9.70127 3.20935,3.66881 7.90685,-6.90121 z m -0.001,-45.0775 -7.90684,-6.90122 -3.20938,3.66882 11.11621,9.70128 z"
       inkscape:label="y1"
       sodipodi:nodetypes="ccccccccccccccccccccccccccccccccccccccccccc"
       class="UnoptimicedTransforms" />
    <path
       id="path2410-5-3"
       style="fill:none;stroke:#000000;stroke-width:0.529167;stroke-linejoin:round;stroke-miterlimit:10;stroke-dasharray:none;stroke-opacity:1"
       d="m 336.71446,55.282462 5.6137,-3.27774 v -9.30147 l -5.61233,-3.34881 v -5.52709 l 8.04779,4.6487 5.0038,-2.88951 2.84343,-14.47874 4.78286,0.94601 -2.02346,10.29761 11.00102,-6.35096 1.22113,2.11563 1.22249,2.11563 -11.00102,6.35233 9.93033,3.39774 -1.57351,4.61347 -13.96101,-4.77746 -5.00242,2.88951 v 9.29199 l 5.00242,2.88952 13.96236,-4.77611 1.5708,4.61347 -9.92897,3.39775 11.00102,6.35097 -1.22249,2.11699 -1.22113,2.11697 -11.00237,-6.35232 2.02347,10.29761 -4.78152,0.94601 -2.84343,-14.47738 -5.0038,-2.88952 -8.04916,4.64736 z m 0,11.37584 11.11621,9.70127 -3.20936,3.66881 -7.90685,-6.90121 z m 0.001,-45.0775 7.90684,-6.90122 3.20938,3.66882 -11.11622,9.70128 z"
       inkscape:label="y2"
       sodipodi:nodetypes="ccccccccccccccccccccccccccccccccccccccccccc"
       class="UnoptimicedTransforms" />
  </g>
  <g
     inkscape:groupmode="layer"
     id="layer2"
     inkscape:label="Flocon 1"
     style="display:inline"
     transform="translate(-14.816667,-2.1166668)">
    <path
       id="path1103"
       style="fill:none;stroke:#000000;stroke-width:0.529167;stroke-linejoin:round;stroke-miterlimit:10;stroke-dasharray:none;stroke-opacity:1"
       d="M 96.752203,8.2602931 V 19.810392 L 86.712746,14.14156 v 5.828811 l 10.039457,5.668831 v 5.726531 L 94.08367,29.859029 86.742906,25.620847 v 8.46587 l -0.03015,3.075043 -4.958095,-2.862607 0.05508,-5.695063 0.05508,-5.835363 -5.048578,-2.915064 -0.110155,11.530428 -10.002739,-5.776362 -2.536091,4.398161 10.000117,5.773736 -9.929306,5.860286 5.048577,2.916374 9.929305,-5.862906 2.941288,1.699469 2.019431,1.164449 -2.644929,1.561786 -7.336829,4.234248 2.86392,1.652256 4.476842,2.585926 2.639685,1.559154 -4.958096,2.862607 -9.930623,-5.860279 -5.047265,2.915057 9.927994,5.860286 -10.000117,5.773732 2.536091,4.39686 10.002739,-5.775056 0.110155,11.529126 5.048578,-2.91375 -0.110155,-11.531741 4.959409,-2.862615 0.02885,3.046195 v 8.496041 l 7.3683,-4.25262 2.640997,-1.492273 v 5.726533 l -10.039458,5.66883 v 5.82881 l 10.039458,-5.66883 v 11.55009 h 5.076114 v -11.55009 l 10.04076,5.66883 v -5.82881 l -10.04077,-5.66883 v -5.726533 l 2.66853,1.506703 7.34077,4.23819 0.001,-8.465883 0.0289,-3.076353 4.9594,2.862615 -0.11015,11.531741 5.04726,2.91375 0.11146,-11.529126 10.00142,5.773736 2.53872,-4.39554 -10.00274,-5.773732 9.92931,-5.860286 -5.04858,-2.916374 -6.30351,3.722839 -3.6258,2.138757 -4.9594,-2.862607 2.65541,-1.568339 7.32503,-4.227689 -7.33945,-4.238181 -2.64099,-1.559161 4.9594,-2.863918 9.92931,5.862906 5.04858,-2.916374 -9.92931,-5.860286 10.00274,-5.773736 -2.53872,-4.395536 -10.00142,5.773737 -0.11146,-11.530428 -5.04726,2.915064 0.11015,11.530426 -4.9594,2.862607 -0.0302,-3.105201 v -8.434402 l -7.29881,4.214576 -2.71049,1.529 v -5.727839 l 10.0408,-5.667523 V 14.14156 l -10.04045,5.668832 V 8.2602931 Z m -4.933181,26.1529439 4.933181,2.848185 v 5.697675 l -4.607974,-2.661975 -0.323896,-0.18752 z m 14.942478,0 v 5.696365 l -4.93187,2.848185 -10e-4,0.0013 v -5.69763 z m -17.479879,10.091908 4.933182,2.849495 -4.933182,2.84687 -2.877034,-1.660125 -2.057458,-1.188053 z m 20.018589,0 3.24682,1.875186 1.68767,0.974309 -4.93449,2.84687 -4.93449,-2.848178 z m -12.548007,7.243723 v 5.696372 l -4.933181,2.849495 0.0013,-5.69768 z m 5.076117,0.0013 4.93318,2.846877 v 5.697682 l -4.93318,-2.849497 z"
       inkscape:label="x"
       sodipodi:nodetypes="ccccccccccccccccccccccccccccccccccccccccccccccccccccccccccccccccccccccccccccccccccccccccccccccccccccccccccccccccccccccccccccccccc" />
    <path
       id="path1103-5"
       style="display:inline;fill:none;stroke:#000000;stroke-width:0.529167;stroke-linejoin:round;stroke-miterlimit:10;stroke-dasharray:none;stroke-opacity:1"
       d="m 55.489607,19.810384 -10.03946,-5.66883 v 5.82881 l 10.03946,5.668825 z m 1.1e-4,49.258386 -10.03946,5.66882 v 5.82882 l 10.03946,-5.66883 z m -7.4707,-24.563631 4.93319,2.84949 -4.93319,2.84687 -4.93449,-2.84818 z m 7.47059,12.94009 -4.93319,2.849501 10e-4,-5.697681 4.93219,-2.84819 v -8.78977 l -4.93187,-2.8495 -0.001,-5.69636 4.93319,2.84818 v -5.89569 l -10.0093,-5.74488 -0.0301,11.54091 -4.9581,-2.86261 0.11016,-11.53042 -5.04858,-2.915065 -0.11015,11.530425 -10.00274,-5.77636 -2.536091,4.39816 10.000117,5.77374 -9.929306,5.86028 5.048577,2.91638 9.929303,-5.86291 4.96072,2.86392 -9.981757,5.79603 9.980447,5.79734 -4.9581,2.86261 -9.930619,-5.86028 -5.047265,2.91505 9.927994,5.860291 -10.000117,5.77374 2.536091,4.39685 10.002736,-5.77505 0.11016,11.52912 5.04858,-2.91375 -0.11016,-11.53174 4.95941,-2.862611 0.0289,11.542231 10.0093,-5.74489 z"
       inkscape:label="y1"
       sodipodi:nodetypes="ccccccccccccccccccccccccccccccccccccccccccccccccccccc" />
    <path
       id="path1103-5-6"
       style="display:inline;fill:none;stroke:#000000;stroke-width:0.529167;stroke-linejoin:round;stroke-miterlimit:10;stroke-dasharray:none;stroke-opacity:1"
       d="m 143.09328,19.810384 10.03946,-5.66883 v 5.82881 l -10.03946,5.668825 z m -1.1e-4,49.258386 10.03946,5.66882 v 5.82882 l -10.03946,-5.66883 z m 7.4707,-24.563631 -4.93319,2.84949 4.93319,2.84687 4.93449,-2.84818 z m -7.47059,12.94009 4.93319,2.849501 -10e-4,-5.697681 -4.93219,-2.84819 v -8.78977 l 4.93187,-2.8495 0.001,-5.69636 -4.93319,2.84818 v -5.89569 l 10.0093,-5.74488 0.0301,11.54091 4.9581,-2.86261 -0.11016,-11.53042 5.04858,-2.915065 0.11015,11.530425 10.00274,-5.77636 2.53609,4.39816 -10.00011,5.77374 9.9293,5.86028 -5.04858,2.91638 -9.9293,-5.86291 -4.96072,2.86392 9.98176,5.79603 -9.98045,5.79734 4.9581,2.86261 9.93062,-5.86028 5.04726,2.91505 -9.92799,5.860291 10.00012,5.77374 -2.53609,4.39685 -10.00274,-5.77505 -0.11016,11.52912 -5.04858,-2.91375 0.11016,-11.53174 -4.95941,-2.862611 -0.0289,11.542231 -10.0093,-5.74489 z"
       inkscape:label="y2"
       sodipodi:nodetypes="ccccccccccccccccccccccccccccccccccccccccccccccccccccc" />
  </g>
  <metadata
     id="metadata1">
    <rdf:RDF>
      <cc:Work
         rdf:about="">
        <cc:license
           rdf:resource="http://creativecommons.org/licenses/by-sa/4.0/" />
        <dc:creator>
          <cc:Agent>
            <dc:title>Adrien Delhorme</dc:title>
          </cc:Agent>
        </dc:creator>
      </cc:Work>
      <cc:License
         rdf:about="http://creativecommons.org/licenses/by-sa/4.0/">
        <cc:permits
           rdf:resource="http://creativecommons.org/ns#Reproduction" />
        <cc:permits
           rdf:resource="http://creativecommons.org/ns#Distribution" />
        <cc:requires
           rdf:resource="http://creativecommons.org/ns#Notice" />
        <cc:requires
           rdf:resource="http://creativecommons.org/ns#Attribution" />
        <cc:permits
           rdf:resource="http://creativecommons.org/ns#DerivativeWorks" />
        <cc:requires
           rdf:resource="http://creativecommons.org/ns#ShareAlike" />
      </cc:License>
    </rdf:RDF>
  </metadata>
</svg>
