<?xml version="1.0" encoding="UTF-8" standalone="no"?>
<svg
   id="external_link"
   width="128"
   height="128"
   version="1.1"
   sodipodi:docname="external-icon.svg"
   inkscape:version="1.1.2 (0a00cf5339, 2022-02-04, custom)"
   xmlns:inkscape="http://www.inkscape.org/namespaces/inkscape"
   xmlns:sodipodi="http://sodipodi.sourceforge.net/DTD/sodipodi-0.dtd"
   xmlns="http://www.w3.org/2000/svg"
   xmlns:svg="http://www.w3.org/2000/svg">
  <defs
     id="defs6" />
  <sodipodi:namedview
     id="namedview4"
     pagecolor="#505050"
     bordercolor="#eeeeee"
     borderopacity="1"
     inkscape:pageshadow="0"
     inkscape:pageopacity="0"
     inkscape:pagecheckerboard="0"
     showgrid="true"
     inkscape:snap-global="false"
     inkscape:zoom="8.73"
     inkscape:cx="53.95189"
     inkscape:cy="65.864834"
     inkscape:window-width="2560"
     inkscape:window-height="1361"
     inkscape:window-x="0"
     inkscape:window-y="0"
     inkscape:window-maximized="1"
     inkscape:current-layer="external_link"
     width="128px">
    <inkscape:grid
       type="xygrid"
       id="grid823"
       dotted="true" />
  </sodipodi:namedview>
  <path
     id="icon"
     d="M 123.99936,4 44.114709,83.885086 M 70.193364,4 H 124.00064 V 57.806293 M 50.634372,22.999783 4,23.000217 V 124.00022 l 101,-4.4e-4 V 77.365388"
     fill="none"
     stroke="#000000"
     stroke-width="8.00396"
     style="stroke-width:8;stroke-miterlimit:4;stroke-dasharray:none"
     sodipodi:nodetypes="cccccccccc" />
</svg>
