<?xml version="1.0" encoding="UTF-8" standalone="no"?>
<!-- Created with Inkscape (http://www.inkscape.org/) -->

<svg
   width="210mm"
   height="297mm"
   viewBox="0 0 210 297"
   version="1.1"
   id="svg5"
   sodipodi:docname="étoile.svg"
   inkscape:version="1.2.2 (b0a8486541, 2022-12-01)"
   xmlns:inkscape="http://www.inkscape.org/namespaces/inkscape"
   xmlns:sodipodi="http://sodipodi.sourceforge.net/DTD/sodipodi-0.dtd"
   xmlns:xlink="http://www.w3.org/1999/xlink"
   xmlns="http://www.w3.org/2000/svg"
   xmlns:svg="http://www.w3.org/2000/svg"
   xmlns:rdf="http://www.w3.org/1999/02/22-rdf-syntax-ns#"
   xmlns:cc="http://creativecommons.org/ns#"
   xmlns:dc="http://purl.org/dc/elements/1.1/">
  <sodipodi:namedview
     id="namedview7"
     pagecolor="#ffffff"
     bordercolor="#eeeeee"
     borderopacity="1"
     inkscape:showpageshadow="0"
     inkscape:pageopacity="1"
     inkscape:pagecheckerboard="0"
     inkscape:deskcolor="#505050"
     inkscape:document-units="mm"
     showgrid="false"
     inkscape:zoom="1.1316416"
     inkscape:cx="584.54901"
     inkscape:cy="844.34857"
     inkscape:window-width="2560"
     inkscape:window-height="1362"
     inkscape:window-x="0"
     inkscape:window-y="0"
     inkscape:window-maximized="1"
     inkscape:current-layer="layer3" />
  <defs
     id="defs2" />
  <g
     inkscape:label="star"
     inkscape:groupmode="layer"
     id="layer1"
     style="fill:#000000"
     transform="translate(-45.917927,-6.1471535)">
    <g
       id="g1270"
       inkscape:label="top pair"
       transform="translate(42.528143,-45.129295)">
      <path
         id="path113"
         style="fill:none;stroke:#000000;stroke-width:0.1;stroke-dasharray:none;stroke-opacity:1"
         inkscape:label="right point"
         inkscape:transform-center-x="-2.2698291"
         inkscape:transform-center-y="-2.2630322"
         d="m 182.21888,69.470812 -65.82594,34.719578 -5.21562,19.63986 v 16.66791 l 16.66843,5.5e-4 19.63986,-5.21564 z m -22.15962,22.153273 -19.44916,36.302275 -10.80175,2.98021 -9.14119,0.1021 0.10247,-9.14063 2.98022,-10.80176 z"
         sodipodi:nodetypes="cccccccccccccc" />
      <use
         x="0"
         y="0"
         xlink:href="#path113"
         inkscape:transform-center-x="1.5134335"
         inkscape:transform-center-y="-1.5089075"
         id="use1266"
         transform="matrix(-1,0,0,1,217.3607,-1.8288574e-6)"
         inkscape:label="left point"
         style="stroke-width:0.1;stroke-dasharray:none" />
    </g>
    <use
       x="0"
       y="0"
       xlink:href="#g1270"
       id="use1272"
       transform="matrix(1,0,0,-1,-3.5443115e-7,195.72655)"
       inkscape:label="bottom pair"
       style="stroke-width:0.1;stroke-dasharray:none" />
    <rect
       style="fill:none;stroke:#000000;stroke-width:0.122409;stroke-dasharray:none;stroke-opacity:1"
       id="rect1959"
       width="5"
       height="28.377525"
       x="148.7085"
       y="83.674515"
       inkscape:label="spacer" />
    <rect
       style="fill:none;stroke:#000000;stroke-width:0.121128;stroke-dasharray:none;stroke-opacity:1"
       id="rect1959-9"
       width="4.9966431"
       height="27.805498"
       x="95.365982"
       y="-164.82068"
       transform="rotate(90)"
       inkscape:label="spacer" />
  </g>
  <g
     inkscape:groupmode="layer"
     id="layer3"
     inkscape:label="measures">
    <g
       id="g2157">
      <path
         style="fill:none;stroke:#808080;stroke-width:0.1;stroke-linecap:butt;stroke-linejoin:miter;stroke-dasharray:0.1, 0.3;stroke-dashoffset:0;stroke-opacity:1"
         d="m 102.79057,105.90489 v 25.81136"
         id="path2053" />
      <path
         style="fill:none;stroke:#808080;stroke-width:0.1;stroke-linecap:butt;stroke-linejoin:miter;stroke-dasharray:0.1, 0.3;stroke-dashoffset:0;stroke-opacity:1"
         d="m 107.79057,105.90489 v 25.81136"
         id="path2053-2" />
      <text
         xml:space="preserve"
         style="font-style:normal;font-weight:normal;font-size:2.82222px;line-height:1.25;font-family:sans-serif;fill:#999999;fill-opacity:1;stroke:none;stroke-width:0.264583"
         x="102.18056"
         y="135.29623"
         id="text2086"><tspan
           sodipodi:role="line"
           id="tspan2084"
           style="font-style:italic;font-variant:normal;font-weight:100;font-stretch:normal;font-size:2.82222px;font-family:'Victor Mono';-inkscape-font-specification:'Victor Mono Thin Italic';fill:#999999;stroke-width:0.264583"
           x="102.18056"
           y="135.29623">5 mm</tspan></text>
    </g>
    <g
       id="g2151">
      <path
         style="fill:none;stroke:#808080;stroke-width:0.1;stroke-linecap:butt;stroke-linejoin:miter;stroke-dasharray:0.1, 0.3;stroke-dashoffset:0;stroke-opacity:1"
         d="M 178.82909,165.23788 H 31.752036"
         id="path2053-1"
         sodipodi:nodetypes="cc" />
      <text
         xml:space="preserve"
         style="font-style:normal;font-weight:normal;font-size:2.82222px;line-height:1.25;font-family:sans-serif;fill:#999999;fill-opacity:1;stroke:none;stroke-width:0.264583"
         x="100.59772"
         y="168.91357"
         id="text2086-0"><tspan
           sodipodi:role="line"
           id="tspan2084-6"
           style="font-style:italic;font-variant:normal;font-weight:100;font-stretch:normal;font-size:2.82222px;font-family:'Victor Mono';-inkscape-font-specification:'Victor Mono Thin Italic';fill:#999999;stroke-width:0.264583"
           x="100.59772"
           y="168.91357">147 mm</tspan></text>
    </g>
    <text
       xml:space="preserve"
       style="font-style:normal;font-weight:normal;font-size:2.11667px;line-height:1.25;font-family:sans-serif;fill:#000000;fill-opacity:1;stroke:none;stroke-width:0.264583"
       x="5.3655968"
       y="292.8931"
       id="text304"><tspan
         sodipodi:role="line"
         id="tspan302"
         style="font-size:2.11667px;stroke-width:0.264583"
         x="5.3655968"
         y="292.8931"> This work © 2023 by Adrien Delhorme is licensed under CC BY-SA 4.0. To view a copy of this license, visit http://creativecommons.org/licenses/by-sa/4.0/</tspan></text>
  </g>
  <metadata
     id="metadata249">
    <rdf:RDF>
      <cc:Work
         rdf:about="">
        <dc:date>03/01/2023</dc:date>
        <dc:creator>
          <cc:Agent>
            <dc:title>Adrien Delhorme</dc:title>
          </cc:Agent>
        </dc:creator>
        <cc:license
           rdf:resource="http://creativecommons.org/licenses/by-sa/4.0/" />
      </cc:Work>
      <cc:License
         rdf:about="http://creativecommons.org/licenses/by-sa/4.0/">
        <cc:permits
           rdf:resource="http://creativecommons.org/ns#Reproduction" />
        <cc:permits
           rdf:resource="http://creativecommons.org/ns#Distribution" />
        <cc:requires
           rdf:resource="http://creativecommons.org/ns#Notice" />
        <cc:requires
           rdf:resource="http://creativecommons.org/ns#Attribution" />
        <cc:permits
           rdf:resource="http://creativecommons.org/ns#DerivativeWorks" />
        <cc:requires
           rdf:resource="http://creativecommons.org/ns#ShareAlike" />
      </cc:License>
    </rdf:RDF>
  </metadata>
</svg>
